therapy,left,right
1,8,12
1,0,22
1,24,31
1,17,27
1,17,23
1,24,30
1,16,24
1,13,61
1,11,13
1,16,20
1,18,25
1,17,26
1,32,61
1,23,61
1,44,48
1,14,17
1,0,5
1,5,8
1,12,20
1,11,61
1,33,40
1,31,61
1,13,39
1,19,32
1,34,61
1,13,61
1,16,24
1,35,61
1,15,22
1,11,17
1,22,32
1,10,35
1,30,34
1,13,61
1,10,17
1,8,21
1,4,9
1,11,61
1,14,19
1,4,8
1,34,61
1,30,36
1,18,24
1,16,60
1,35,39
1,21,61
1,11,20
1,48,61
0,45,61
0,6,10
0,0,7
0,46,61
0,46,61
0,7,16
0,17,61
0,7,14
0,37,44
0,0,8
0,4,11
0,15,61
0,11,15
0,22,61
0,46,61
0,46,61
0,25,37
0,46,61
0,26,40
0,46,61
0,27,34
0,36,44
0,46,61
0,36,48
0,37,61
0,40,61
0,17,25
0,46,61
0,11,18
0,38,61
0,5,12
0,37,61
0,0,5
0,18,61
0,24,61
0,36,61
0,5,11
0,19,35
0,17,25
0,24,61
0,32,61
0,33,61
0,19,26
0,37,61
0,34,61
0,36,61
